{"photos":{"page":1,"pages":18158,"perpage":24,"total":"435786","photo":[{"id":"50579765293","owner":"75402730@N00","secret":"c1c2ece0d3","server":"65535","farm":66,"title":"Power","ispublic":1,"isfriend":0,"isfamily":0},{"id":"50579195128","owner":"89874447@N05","secret":"3ea4019527","server":"65535","farm":66,"title":"THE CIRCLE","ispublic":1,"isfriend":0,"isfamily":0},{"id":"50580017017","owner":"67207645@N08","secret":"0465287735","server":"65535","farm":66,"title":"Citro\u00ebn SM","ispublic":1,"isfriend":0,"isfamily":0},{"id":"50579876152","owner":"132271845@N05","secret":"4a7b40eac6","server":"65535","farm":66,"title":"Never forget","ispublic":1,"isfriend":0,"isfamily":0},{"id":"50579408231","owner":"46102325@N06","secret":"712d264006","server":"65535","farm":66,"title":"BMW Roundel","ispublic":1,"isfriend":0,"isfamily":0},{"id":"50578678553","owner":"46102325@N06","secret":"8477f1809d","server":"65535","farm":66,"title":"Maxell LR44","ispublic":1,"isfriend":0,"isfamily":0},{"id":"50579543767","owner":"46102325@N06","secret":"470846f547","server":"65535","farm":66,"title":"Monk Promo Photo (9A)","ispublic":1,"isfriend":0,"isfamily":0},{"id":"50578677873","owner":"46102325@N06","secret":"abf2e6ec97","server":"65535","farm":66,"title":"Monk Season 8 Disc 4","ispublic":1,"isfriend":0,"isfamily":0},{"id":"50578677353","owner":"46102325@N06","secret":"c5ed0821b4","server":"65535","farm":66,"title":"Security Equipment in use","ispublic":1,"isfriend":0,"isfamily":0},{"id":"50579542977","owner":"46102325@N06","secret":"293359ac66","server":"65535","farm":66,"title":"SMS","ispublic":1,"isfriend":0,"isfamily":0},{"id":"50579542772","owner":"46102325@N06","secret":"1fc0ba8cd2","server":"65535","farm":66,"title":"Special Limited Edition 30","ispublic":1,"isfriend":0,"isfamily":0},{"id":"50579405431","owner":"46102325@N06","secret":"45c8164f11","server":"65535","farm":66,"title":"Squircle Wynwood Red Circle","ispublic":1,"isfriend":0,"isfamily":0},{"id":"50579165882","owner":"78114234@N05","secret":"b573e3b656","server":"65535","farm":66,"title":"circle","ispublic":1,"isfriend":0,"isfamily":0},{"id":"50579305092","owner":"51809283@N06","secret":"8d9937d252","server":"65535","farm":66,"title":"","ispublic":1,"isfriend":0,"isfamily":0},{"id":"50578810832","owner":"56078735@N07","secret":"c3392edf1e","server":"65535","farm":66,"title":"Vibrant Verbena Reflections by Kaye Menner","ispublic":1,"isfriend":0,"isfamily":0},{"id":"50577355143","owner":"190959577@N04","secret":"378d38fbf8","server":"65535","farm":66,"title":"Bakery store&#39;s yellow shop sign mockup","ispublic":1,"isfriend":0,"isfamily":0},{"id":"50578143142","owner":"46102325@N06","secret":"296e799b49","server":"65535","farm":66,"title":"2003 US Penny Lincoln Head","ispublic":1,"isfriend":0,"isfamily":0},{"id":"50577279913","owner":"46102325@N06","secret":"ee9ea333bf","server":"65535","farm":66,"title":"Aluminium Cans","ispublic":1,"isfriend":0,"isfamily":0},{"id":"50578005996","owner":"46102325@N06","secret":"f2f9452ed1","server":"65535","farm":66,"title":"First International Symposium of Arctic Geology","ispublic":1,"isfriend":0,"isfamily":0},{"id":"50578005806","owner":"46102325@N06","secret":"d7e83beae8","server":"65535","farm":66,"title":"Iron Sushi detail","ispublic":1,"isfriend":0,"isfamily":0},{"id":"50578142672","owner":"46102325@N06","secret":"40ef894d62","server":"65535","farm":66,"title":"La Salle Wheel (1)","ispublic":1,"isfriend":0,"isfamily":0},{"id":"50578142502","owner":"46102325@N06","secret":"9c98d7bd17","server":"65535","farm":66,"title":"Les Miserables","ispublic":1,"isfriend":0,"isfamily":0},{"id":"50577279363","owner":"46102325@N06","secret":"7dfb3e41a5","server":"65535","farm":66,"title":"Sabor Da Casa","ispublic":1,"isfriend":0,"isfamily":0},{"id":"50577279278","owner":"46102325@N06","secret":"7710ac2371","server":"65535","farm":66,"title":"Shephard Fairey Wynwood (3)","ispublic":1,"isfriend":0,"isfamily":0}]},"stat":"ok"}